{"meta":{"pagination":{"total":1554,"pages":78,"page":1,"limit":20,"links":{"previous":null,"current":"https://gorest.co.in/public/v1/users?page=1","next":"https://gorest.co.in/public/v1/users?page=2"}}},"data":[{"id":15,"name":"Priya Guha VM","email":"vm_priya_guha@boyle.io","gender":"male","status":"active"},{"id":16,"name":"Bhardwaj Panicker IV","email":"panicker_iv_bhardwaj@heidenreich.name","gender":"female","status":"inactive"},{"id":22,"name":"Chandak Gowda DO","email":"gowda_do_chandak@lehner.co","gender":"female","status":"inactive"},{"id":29,"name":"Sen. Akroor Nair","email":"sen_nair_akroor@wiza.info","gender":"female","status":"inactive"},{"id":30,"name":"Mahendra Kakkar DVM","email":"dvm_mahendra_kakkar@ebert.io","gender":"male","status":"active"},{"id":31,"name":"Prayag Khatri Sr.","email":"khatri_prayag_sr@parker.info","gender":"male","status":"active"},{"id":33,"name":"Brajesh Sharma","email":"sharma_brajesh@bartoletti-casper.com","gender":"female","status":"inactive"},{"id":34,"name":"Atmaja Patil PhD","email":"patil_phd_atmaja@jacobs.info","gender":"male","status":"inactive"},{"id":35,"name":"Jagdeep Reddy Jr.","email":"jagdeep_reddy_jr@swift.name","gender":"male","status":"inactive"},{"id":36,"name":"Gopee Nayar","email":"nayar_gopee@armstrong.com","gender":"male","status":"active"},{"id":37,"name":"Bhanumati Devar","email":"bhanumati_devar@feest-dubuque.info","gender":"male","status":"inactive"},{"id":38,"name":"Kanishka Devar","email":"devar_kanishka@williamson.com","gender":"male","status":"active"},{"id":39,"name":"Girja Embranthiri","email":"embranthiri_girja@hilpert-bogisich.com","gender":"male","status":"active"},{"id":40,"name":"Rohit Nehru","email":"nehru_rohit@gleason-leuschke.name","gender":"male","status":"inactive"},{"id":41,"name":"Vimal Deshpande","email":"vimal_deshpande@keeling.net","gender":"female","status":"inactive"},{"id":43,"name":"Dr. Ojaswini Nair","email":"ojaswini_dr_nair@johnson-terry.org","gender":"female","status":"active"},{"id":44,"name":"Nalini Guneta","email":"guneta_nalini@cronin.biz","gender":"male","status":"active"},{"id":45,"name":"Mayoor Acharya","email":"acharya_mayoor@crooks-reichert.com","gender":"female","status":"active"},{"id":46,"name":"Girija Mukhopadhyay","email":"girija_mukhopadhyay@leuschke.com","gender":"male","status":"active"},{"id":47,"name":"Kumar Pilla","email":"kumar_pilla@hansen.co","gender":"female","status":"active"}]}